…
### Problem 1.1.4 

Notice that in these tables, years are represented by columns. We want to create a tidy dataset in which each row is a unit or observation and our 5 values of interest, including the year for that unit, are in the columns. The unit here is a country/year pair.

We call this the _long_ format. Use the `pivot_longer` function from the `tidyr` package to create a new table for childhood mortality using the long format. Call the new columns `year` and `child_mortality`.


``` r
pivot_longer(data=t1, cols=!country, names_to="year", values_to="child_mortality")
```

```
## # A tibble: 59,184 × 3
##    country  year  child_mortality
##    <chr>    <chr>           <dbl>
##  1 Abkhazia 1800               NA
##  2 Abkhazia 1801               NA
##  3 Abkhazia 1802               NA
##  4 Abkhazia 1803               NA
##  5 Abkhazia 1804               NA
##  6 Abkhazia 1805               NA
##  7 Abkhazia 1806               NA
##  8 Abkhazia 1807               NA
##  9 Abkhazia 1808               NA
## 10 Abkhazia 1809               NA
## # ℹ 59,174 more rows
```
…
